{
  "_readme": [
      "When adding new change-log records, developers are recommended the following guide:",
      "https://docs.vaimo.com/workflow-module/guides.html#changelog-usage"
  ],
  "3.0.1": {
    "fix": [
      "The 2.4.4 compatibility branch changes has been pulled to fix missing methods in the plugin interface implementation"
    ]
  },
  "3.0.0": {
      "feature": [
        "Add support of Adobe Commerce 2.4.6-p5",
        "Update unit tests to work with the php 8.x (upgrade to phpunit 9.x)",
        "Add composer changelogs support for future updates"
      ],
      "breaking": [
        "Remove composer 1 support, break backward compatibility"
      ]
  }
}
